{
  "errors": {
    "400": {
      "hits": 125,
      "paths": {}
    },
    "404": {
      "hits": 2141,
      "paths": {}
    }
  },
  "firstProcessedDate": "2020-12-21T00:00:18+00:00",
  "hits": 4841,
  "hitsPerCountry": {
    "-": 268,
    "BE": 119,
    "CA": 150,
    "CO": 122,
    "DE": 271,
    "GB": 355,
    "ID": 127,
    "KR": 989,
    "NL": 195,
    "TW": 152,
    "US": 1517
  },
  "hitsPerLanguage": {
    "?": 4106,
    "en": 735
  },
  "lastProcessedDate": "2020-12-27T23:55:31+00:00",
  "paths": {
    "/": {
      "hits": 337
    },
    "/android-free/repository/": {
      "hits": 2008,
      "hitsPerCountry": {
        "CA": 146,
        "DE": 127,
        "GB": 284,
        "NL": 164,
        "US": 988
      }
    }
  },
  "queries": {
    "": {
      "hits": 869,
      "hitsPerCountry": {
        "BE": 119,
        "CO": 119,
        "DE": 119,
        "ID": 119,
        "TW": 140,
        "US": 132
      },
      "hitsPerLanguage": {
        "?": 134,
        "en": 735
      }
    }
  },
  "weekStartDate": "2020-12-21T00:00:00+00:00"
}