{
  "errors": {
    "400": {
      "hits": 116,
      "paths": {}
    },
    "404": {
      "hits": 538,
      "paths": {}
    }
  },
  "firstProcessedDate": "2021-03-23T06:30:05+00:00",
  "hits": 2921,
  "hitsPerCountry": {
    "-": 244,
    "DE": 103,
    "FR": 104,
    "GB": 305,
    "JP": 135,
    "NL": 186,
    "US": 1443
  },
  "lastProcessedDate": "2021-03-28T23:59:35+00:00",
  "paths": {
    "/": {
      "hits": 319
    },
    "/android-free/repository/": {
      "hits": 1674,
      "hitsPerCountry": {
        "GB": 281,
        "JP": 125,
        "NL": 171,
        "US": 793
      }
    },
    "/robots.txt": {
      "hits": 118
    }
  },
  "queries": {
    "": {
      "hits": 112
    }
  },
  "weekStartDate": "2021-03-22T00:00:00+00:00"
}