{
  "errors": {
    "404": {
      "hits": 108,
      "paths": {}
    }
  },
  "firstProcessedDate": "2021-02-20T06:27:27+00:00",
  "hits": 813,
  "lastProcessedDate": "2021-02-21T23:57:14+00:00",
  "paths": {
    "/android-free/repository/": {
      "hits": 515
    }
  },
  "queries": {},
  "weekStartDate": "2021-02-15T00:00:00+00:00"
}