{
  "errors": {
    "400": {
      "hits": 175,
      "paths": {}
    },
    "404": {
      "hits": 519,
      "paths": {}
    }
  },
  "firstProcessedDate": "2021-06-14T00:02:55+00:00",
  "hits": 3650,
  "hitsPerCountry": {
    "-": 272,
    "CA": 100,
    "FR": 108,
    "GB": 446,
    "JP": 198,
    "NL": 268,
    "US": 1714
  },
  "lastProcessedDate": "2021-06-20T23:59:51+00:00",
  "paths": {
    "/": {
      "hits": 569
    },
    "/android-free/repository/": {
      "hits": 1990,
      "hitsPerCountry": {
        "GB": 422,
        "JP": 198,
        "NL": 225,
        "US": 775
      }
    },
    "/robots.txt": {
      "hits": 116
    }
  },
  "queries": {},
  "weekStartDate": "2021-06-14T00:00:00+00:00"
}