{
  "errors": {
    "400": {
      "hits": 1261,
      "paths": {
        "": 274,
        "www.msftncsi.com:443": 877
      }
    },
    "404": {
      "hits": 1015,
      "paths": {}
    }
  },
  "firstProcessedDate": "2022-01-18T06:28:10+00:00",
  "hits": 5677,
  "hitsPerCountry": {
    "-": 621,
    "DE": 122,
    "GB": 360,
    "JP": 210,
    "NL": 229,
    "RU": 230,
    "US": 3470
  },
  "hitsPerLanguage": {
    "?": 5279,
    "en": 398
  },
  "lastProcessedDate": "2022-01-23T23:56:42+00:00",
  "paths": {
    "/": {
      "hits": 1296
    },
    "/android-free/repository/": {
      "hits": 1627,
      "hitsPerCountry": {
        "GB": 312,
        "JP": 199,
        "NL": 210,
        "US": 654
      }
    },
    "/robots.txt": {
      "hits": 100
    }
  },
  "queries": {
    "": {
      "hits": 469,
      "hitsPerCountry": {
        "RU": 132,
        "US": 294
      }
    }
  },
  "weekStartDate": "2022-01-17T00:00:00+00:00"
}